{
  "project_info": {
    "project_number": "155177352989",
    "project_id": "vo-uat",
    "storage_bucket": "vo-uat.appspot.com"
  },
  "client": [
    {
      "client_info": {
        "mobilesdk_app_id": "1:155177352989:android:406e284795d77217d6abf4",
        "android_client_info": {
          "package_name": "com.starhealth.virtualoffice"
        }
      },
      "oauth_client": [
        {
          "client_id": "155177352989-oamb5j3g478cbb8d5mau8nsk3bl5iq2t.apps.googleusercontent.com",
          "client_type": 3
        }
      ],
      "api_key": [
        {
          "current_key": "AIzaSyAhTfZVNXq_DEI9MXhlhHFMiEzuvn8I9sc"
        }
      ],
      "services": {
        "appinvite_service": {
          "other_platform_oauth_client": [
            {
              "client_id": "155177352989-oamb5j3g478cbb8d5mau8nsk3bl5iq2t.apps.googleusercontent.com",
              "client_type": 3
            }
          ]
        }
      }
    }
  ],
  "configuration_version": "1"
}